bank_name,pretty_name,label_val,label_val_parentheses,value,value_bns,label_val_bns
UBS,Öl Gas und Kohle,13.03 Mia. USD,(13.03 Mia. USD),3.0555562590991485,13.029018907936349,13.03
ZKB,Öl Gas und Kohle,504.6 Mio. USD,(504.6 Mio. USD),2.819219169293418,0.5046038633762379,0.5
Credit Suisse,Öl Gas und Kohle,4.58 Mia. USD,(4.58 Mia. USD),2.942248797150639,4.581381280583439,4.58
Lombard Odier,Öl Gas und Kohle,92.2 Mio. USD,(92.2 Mio. USD),0.9927095117570548,0.09224144607071724,0.09
Pictet,Öl Gas und Kohle,761.9 Mio. USD,(761.9 Mio. USD),0.8017551048146004,0.761860604624335,0.76
