securityType	securityType2
Common Stock	Common Stock
ADR	Depositary Receipt
Closed-End Fund	Mutual Fund
REIT	REIT
US DOMESTIC	Corp
GLOBAL	Corp
ETP	Mutual Fund
NY Reg Shrs	Depositary Receipt
PUBLIC	Preferred Stock
MLP	Partnership Shares
Equity WRT	Warrant
EURO-DOLLAR	Corp
Royalty Trst	Common Stock
DOMESTIC MTN	Corp
Ltd Part	Partnership Shares
YANKEE	Corp
Unit	Unit
PRIV PLACEMENT	Corp
Tracking Stk	Common Stock
EURO MTN	Corp
PRIVATE	Preferred Stock
Closed-End Fund	Common Stock
Common Stock	Partnership Shares
Right	Right
REIT	Common Stock
EURO NON-DOLLAR	Corp
GDR	Depositary Receipt
EURO-ZONE	Corp
DOMESTIC	Corp
